<svg xmlns="http://www.w3.org/2000/svg" xmlnsXlink="http://www.w3.org/1999/xlink" width="50.2"
     height="49.116" viewBox="0 0 50.2 49.116">
    <defs>
        <filter id="Icon_ionic-ios-heart-empty" x="0" y="0" width="50.2" height="49.116"
                filterUnits="userSpaceOnUse">
            <feOffset input="SourceAlpha"/>
            <feGaussianBlur stdDeviation="3" result="blur"/>
            <feFlood floodColor="#f6c11b" floodOpacity="0.161"/>
            <feComposite operator="in" in2="blur"/>
            <feComposite in="SourceGraphic"/>
        </filter>
    </defs>
    <g transform="matrix(1, 0, 0, 1, 0, 0)" filter="url(#Icon_ionic-ios-heart-empty)">
        <path id="Icon_ionic-ios-heart-empty-2" data-name="Icon ionic-ios-heart-empty"
              d="M25.613,3.281h-.075a8.534,8.534,0,0,0-7.125,3.9,8.534,8.534,0,0,0-7.125-3.9h-.075a8.479,8.479,0,0,0-8.4,8.475A18.256,18.256,0,0,0,6.4,21.709c4.515,6.173,12.015,11.572,12.015,11.572s7.5-5.4,12.015-11.572a18.256,18.256,0,0,0,3.585-9.953A8.479,8.479,0,0,0,25.613,3.281Z"
              transform="translate(6.69 6.22)" fill="#f6c11b" stroke="#f6c11b" strokeWidth="1"/>
    </g>
</svg>