<svg xmlns="http://www.w3.org/2000/svg" width="28.305" height="31" viewBox="0 0 28.305 31">
    <g id="Groupe_15" data-name="Groupe 15" transform="translate(0.5 0.5)">
        <path id="Tracé_11" data-name="Tracé 11"
              d="M426.7,699.2h-.969V696.92a.42.42,0,0,0-.84,0V699.2H414.458v-2.03a.42.42,0,0,0-.84,0v2.03h-.969a6.635,6.635,0,0,0-6.628,6.628v14.049a6.635,6.635,0,0,0,6.628,6.628H426.7a6.635,6.635,0,0,0,6.628-6.628V705.823A6.635,6.635,0,0,0,426.7,699.2Zm5.788,9.253v11.424a5.794,5.794,0,0,1-5.788,5.787H412.649a5.794,5.794,0,0,1-5.787-5.787V708.449Zm-18.448-5.472a.421.421,0,0,0,.42-.42v-2.52h10.431v2.275a.42.42,0,0,0,.84,0v-2.275h.969a5.794,5.794,0,0,1,5.788,5.788v1.785H406.861v-1.785a5.794,5.794,0,0,1,5.787-5.788h.969v2.52A.421.421,0,0,0,414.037,702.976Z"
              transform="translate(-406.021 -696.5)" fill="#fff" stroke="#fafafa" strokeWidth="1"/>
        <path id="Rectangle_12" data-name="Rectangle 12"
              d="M.678,0h0a.678.678,0,0,1,.678.678v0a.678.678,0,0,1-.678.678h0A.678.678,0,0,1,0,.678v0A.678.678,0,0,1,.678,0Z"
              transform="translate(6.61 16.648)" fill="#fff" stroke="#fafafa" strokeWidth="1"/>
        <path id="Rectangle_13" data-name="Rectangle 13"
              d="M.678,0h0a.678.678,0,0,1,.678.678v0a.678.678,0,0,1-.678.678h0A.678.678,0,0,1,0,.678v0A.678.678,0,0,1,.678,0Z"
              transform="translate(12.975 16.648)" fill="#fff" stroke="#fafafa" strokeWidth="1"/>
        <rect id="Rectangle_14" data-name="Rectangle 14" width="1.355" height="1.355" rx="0.678"
              transform="translate(19.339 16.648)" fill="#fff" stroke="#fafafa" strokeWidth="1"/>
        <path id="Rectangle_15" data-name="Rectangle 15"
              d="M.678,0h0a.678.678,0,0,1,.678.678v0a.678.678,0,0,1-.678.678h0A.678.678,0,0,1,0,.678v0A.678.678,0,0,1,.678,0Z"
              transform="translate(6.61 22.035)" fill="#fff" stroke="#fafafa" strokeWidth="1"/>
        <path id="Rectangle_16" data-name="Rectangle 16"
              d="M.678,0h0a.678.678,0,0,1,.678.678v0a.678.678,0,0,1-.678.678h0A.678.678,0,0,1,0,.678v0A.678.678,0,0,1,.678,0Z"
              transform="translate(12.975 22.035)" fill="#fff" stroke="#fafafa" strokeWidth="1"/>
        <path id="Rectangle_17" data-name="Rectangle 17"
              d="M.678,0h0a.678.678,0,0,1,.678.678v0a.678.678,0,0,1-.678.678h0A.678.678,0,0,1,0,.678v0A.678.678,0,0,1,.678,0Z"
              transform="translate(19.339 22.035)" fill="#fff" stroke="#fafafa" strokeWidth="1"/>
    </g>
</svg>